{
	"showUi": false,
	"shouldNotify": true,
	"options": [{
		"id": "family",
		"name": "家庭式",
		"region": "台北市",
		"minPrice": 15000,
		"maxPrice": 26000,
		"house": "family",
		"page": 3
	},{
		"id": "family-nt",
		"name": "家庭式(新北)",
		"region": "新北市",
		"minPrice": 15000,
		"maxPrice": 26000,
		"house": "family",
		"page": 3
	},{
		"id": "dfloor",
		"name": "樓中樓",
		"region": "台北市",
		"keyword": "樓中樓",
		"minPrice": 10000,
		"maxPrice": 17000,
		"house": null,
		"page": 3
	}, {
		"id": "dfloor-newtaipei",
		"name": "樓中樓(新北)",
		"region": "新北市",
		"keyword": "樓中樓",
		"minPrice": 10000,
		"maxPrice": 17000,
		"house": null,
		"page": 3
	}, {
		"id": "elev",
		"name": "電梯大樓",
		"region": "台北市",
		"rentShape": "elevator",
		"minPrice": 10000,
		"maxPrice": 17000,
		"house": null,
		"page": 3
	}, {
		"id": "elev-newtaipei",
		"name": "電梯大樓(新北)",
		"region": "新北市",
		"rentShape": "elevator",
		"minPrice": 10000,
		"maxPrice": 17000,
		"house": null,
		"page": 3
	}, {
		"id": "daan",
		"name": "大安區",
		"region": "大安區",
		"minPrice": 9000,
		"maxPrice": 21000,
		"house": null,
		"page": 3
	}, {
		"id": "guting",
		"name": "古亭",
		"keyword": "古亭",
		"region": "台北市",
		"minPrice": 9000,
		"maxPrice": 21000,
		"house": null,
		"page": 3
	}, {
		"id": "taipei",
		"name": "台北市",
		"region": "台北市",
		"minPrice": 9000,
		"maxPrice": 16000,
		"house": null,
		"page": 3
	}, {
		"id": "newtaipei",
		"name": "新北市",
		"region": "新北市",
		"minPrice": 9000,
		"maxPrice": 14000,
		"house": null,
		"page": 3
	}]
}
